Criando o R Markdown da atividade 3
…
Desta forma iremos criar um novo objeto com as variveis de maior interesse para a M. nigra.

M.nigra_gbif1 <- M.nigra_gbif$data %>%
  dplyr::select(scientificName, acceptedScientificName, decimalLatitude, decimalLongitude,
                issues,elevation, basisOfRecord, rightsHolder, 
                datasetName, recordedBy, locality, stateProvince,county, habitat) 

M.nigra_gbif1

## # A tibble: 405 x 14
##    scientificName    acceptedScientifi~ decimalLatitude decimalLongitude issues 
##    <chr>             <chr>                        <dbl>            <dbl> <chr>  
##  1 Metrodorea nigra~ Metrodorea nigra ~          -23.1             -48.3 gass84~
##  2 Metrodorea nigra~ Metrodorea nigra ~          -23.7             -53.3 gass84~
##  3 Metrodorea nigra~ Metrodorea nigra ~          -23.0             -48.4 gass84~
##  4 Metrodorea nigra~ Metrodorea nigra ~          -22.8             -52.1 gass84~
##  5 Metrodorea nigra~ Metrodorea nigra ~          -22.7             -48.2 gass84~
##  6 Metrodorea nigra~ Metrodorea nigra ~          -22.7             -48.2 gass84~
##  7 Metrodorea nigra~ Metrodorea nigra ~           -5.06            -42.6 gass84~
##  8 Metrodorea nigra~ Metrodorea nigra ~          -23.4             -51.9 gass84~
##  9 Metrodorea nigra~ Metrodorea nigra ~           -5.02            -42.6 gass84~
## 10 Metrodorea nigra~ Metrodorea nigra ~           -5.02            -42.6 gass84~
## # ... with 395 more rows, and 9 more variables: elevation <dbl>,
## #   basisOfRecord <chr>, rightsHolder <chr>, datasetName <chr>,
## #   recordedBy <chr>, locality <chr>, stateProvince <chr>, county <chr>,
## #   habitat <chr>
…
